%!PS-Adobe-3.0 EPSF-3.0
%%BoundingBox: 0 0 240 216
%%HiResBoundingBox: 0 0 239.59 215.03
%%Title: 
%%Creator: TpX drawing tool
%%CreationDate: 3/19/2018 10:53:33 AM
%%EndComments
newpath 71.93 128.28 moveto 104.58 143.93 140.72 160.04 172.21 143.16 curveto
209.68 123.08 216.04 72.05 187.64 37.93 curveto
155.40 -0.81 99.01 0.95 48.79 14.23 curveto
35.15 17.84 21.10 22.54 12.98 34.07 curveto
-10.58 67.53 26.45 106.47 71.93 128.28 curveto
closepath gsave grestore 0.85 setlinewidth [] 0 setdash 0 0 0 setrgbcolor stroke 
newpath 185.93 110.15 moveto 143.41 110.15 lineto 129.24 152.67 lineto 115.07 195.19 lineto 143.41 209.37 lineto gsave grestore 0.85 setlinewidth [] 0 setdash 0 0 0 setrgbcolor stroke 
newpath 129.78 149.77 2.83 0 360 arc 
closepath gsave 0 0 0 setrgbcolor fill grestore 0.85 setlinewidth [] 0 setdash 0 0 0 setrgbcolor stroke 
newpath 133.09 122.77 moveto 111.05 112.86 lineto 150.17 191.09 lineto 233.92 190.54 lineto gsave grestore 0.85 setlinewidth [] 0 setdash 0 0 0 setrgbcolor stroke 
newpath 176.62 208.17 moveto 131.44 193.85 lineto 129.23 109.55 lineto 136.95 116.71 lineto gsave grestore 0.85 setlinewidth [] 0 setdash 0 0 0 setrgbcolor stroke 
showpage
%%EOF
