%!PS-Adobe-3.0 EPSF-3.0
%%BoundingBox: 0 0 212 131
%%HiResBoundingBox: 0 0 211.49 130.60
%%Title: 
%%Creator: TpX drawing tool
%%CreationDate: 3/19/2018 2:43:44 PM
%%EndComments
newpath 8.78 67.74 moveto 15.70 84.49 33.52 93.96 51.30 90.42 curveto
59.96 88.70 68.68 83.90 76.81 87.58 curveto
82.52 90.17 85.54 96.06 88.15 101.76 curveto
91.62 109.33 95.18 117.29 102.32 121.60 curveto
115.35 129.46 131.55 122.48 142.01 110.26 curveto
151.49 99.18 156.70 84.70 153.35 70.58 curveto
149.50 54.37 135.71 43.45 122.17 33.73 curveto
97.31 15.87 68.82 -0.85 39.96 8.21 curveto
13.99 16.37 -1.25 43.46 8.78 67.74 curveto
closepath gsave grestore 0.85 setlinewidth [] 0 setdash 0 0 0 setrgbcolor stroke 
newpath 31.46 11.05 2.83 0 360 arc 
closepath gsave 0 0 0 setrgbcolor fill grestore 0.85 setlinewidth [] 0 setdash 0 0 0 setrgbcolor stroke 
newpath 31.46 11.05 moveto 150.51 62.07 lineto gsave grestore 0.85 setlinewidth [5.67 2.83] 0 setdash 0 0 0 setrgbcolor stroke 
newpath 150.51 62.07 moveto 142.01 110.26 lineto gsave grestore 0.85 setlinewidth [5.67 2.83] 0 setdash 0 0 0 setrgbcolor stroke 
newpath 150.51 62.07 2.83 0 360 arc 
closepath gsave 0 0 0 setrgbcolor fill grestore 0.85 setlinewidth [] 0 setdash 0 0 0 setrgbcolor stroke 
newpath 142.01 110.26 2.83 0 360 arc 
closepath gsave 0 0 0 setrgbcolor fill grestore 0.85 setlinewidth [] 0 setdash 0 0 0 setrgbcolor stroke 
showpage
%%EOF
