%!PS-Adobe-3.0 EPSF-3.0
%%BoundingBox: 0 0 118 91
%%HiResBoundingBox: 0 0 117.64 90.48
%%Title: 
%%Creator: TpX drawing tool
%%CreationDate: 3/17/2018 3:10:10 PM
%%EndComments
newpath 19.84 34.02 moveto 24.66 41.31 30.38 47.98 36.85 53.86 curveto
48.26 64.23 61.81 71.97 76.54 76.54 curveto
gsave grestore 0.85 setlinewidth [] 0 setdash 0 0 0 setrgbcolor stroke 
newpath 76.54 76.54 moveto 86.15 72.73 94.16 65.72 99.21 56.69 curveto
103.08 49.77 105.04 41.94 104.88 34.02 curveto
gsave grestore 0.85 setlinewidth [] 0 setdash 0 0 0 setrgbcolor stroke 
newpath 104.88 34.02 moveto 98.33 35.32 91.59 35.32 85.04 34.02 curveto
69.01 30.83 55.38 20.35 48.19 5.67 curveto
gsave grestore 0.85 setlinewidth [] 0 setdash 0 0 0 setrgbcolor stroke 
newpath 48.19 5.67 moveto 46.65 13.33 42.67 20.29 36.85 25.51 curveto
32.04 29.82 26.17 32.76 19.84 34.02 curveto
gsave grestore 0.85 setlinewidth [] 0 setdash 0 0 0 setrgbcolor stroke 
newpath 48.19 5.67 moveto 65.20 35.43 lineto gsave grestore 0.85 setlinewidth [] 0 setdash 0 0 0 setrgbcolor stroke 
newpath 65.20 35.43 moveto 59.54 29.53 lineto 65.20 35.43 lineto 62.98 27.56 lineto 65.20 35.43 lineto closepath gsave 0 0 0 setrgbcolor fill grestore 0.85 setlinewidth [] 0 setdash 0 0 0 setrgbcolor stroke 
newpath 19.84 34.02 moveto 41.10 62.36 lineto gsave grestore 0.85 setlinewidth [] 0 setdash 0 0 0 setrgbcolor stroke 
newpath 41.10 62.36 moveto 34.75 57.20 lineto 41.10 62.36 lineto 37.93 54.82 lineto 41.10 62.36 lineto closepath gsave 0 0 0 setrgbcolor fill grestore 0.85 setlinewidth [] 0 setdash 0 0 0 setrgbcolor stroke 
newpath 19.84 34.02 moveto 42.52 28.35 lineto gsave grestore 0.85 setlinewidth [] 0 setdash 0 0 0 setrgbcolor stroke 
newpath 42.52 28.35 moveto 35.30 32.20 lineto 42.52 28.35 lineto 34.34 28.35 lineto 42.52 28.35 lineto closepath gsave 0 0 0 setrgbcolor fill grestore 0.85 setlinewidth [] 0 setdash 0 0 0 setrgbcolor stroke 
newpath 76.54 76.54 moveto 103.46 63.78 lineto gsave grestore 0.85 setlinewidth [] 0 setdash 0 0 0 setrgbcolor stroke 
newpath 103.46 63.78 moveto 97.14 68.97 lineto 103.46 63.78 lineto 95.44 65.38 lineto 103.46 63.78 lineto closepath gsave 0 0 0 setrgbcolor fill grestore 0.85 setlinewidth [] 0 setdash 0 0 0 setrgbcolor stroke 
showpage
%%EOF
