%!PS-Adobe-3.0 EPSF-3.0
%%BoundingBox: 0 0 186 108
%%HiResBoundingBox: 0 0 185.67 107.49
%%Title: 
%%Creator: TpX drawing tool
%%CreationDate: 3/18/2018 2:36:32 PM
%%EndComments
newpath 39.69 5.67 moveto 39.69 99.21 lineto gsave grestore 0.85 setlinewidth [] 0 setdash 0 0 0 setrgbcolor stroke 
newpath 39.69 99.21 moveto 37.70 91.28 lineto 39.69 99.21 lineto 41.67 91.28 lineto 39.69 99.21 lineto closepath gsave 0 0 0 setrgbcolor fill grestore 0.85 setlinewidth [] 0 setdash 0 0 0 setrgbcolor stroke 
newpath 11.34 34.02 moveto 153.07 34.02 lineto gsave grestore 0.85 setlinewidth [] 0 setdash 0 0 0 setrgbcolor stroke 
newpath 153.07 34.02 moveto 145.13 36.00 lineto 153.07 34.02 lineto 145.13 32.03 lineto 153.07 34.02 lineto closepath gsave 0 0 0 setrgbcolor fill grestore 0.85 setlinewidth [] 0 setdash 0 0 0 setrgbcolor stroke 
newpath 5.67 17.01 moveto 10.61 21.81 14.48 27.61 17.01 34.02 curveto
20.25 42.23 22.66 52.06 31.18 53.86 curveto
35.14 54.69 39.08 53.17 42.52 51.02 curveto
47.85 47.71 52.24 42.90 53.86 36.85 curveto
56.11 28.46 57.64 18.17 65.20 19.84 curveto
67.94 20.45 69.60 22.98 70.87 25.51 curveto
73.72 31.19 76.16 37.75 82.20 39.69 curveto
84.05 40.28 86.04 40.30 87.87 39.69 curveto
90.55 38.80 92.64 36.69 93.54 34.02 curveto
94.25 31.91 94.38 29.36 96.38 28.35 curveto
100.46 26.29 102.64 32.10 104.88 36.85 curveto
105.48 38.12 106.38 39.29 107.72 39.69 curveto
114.84 41.77 113.95 29.93 119.06 28.35 curveto
119.97 28.06 120.96 28.12 121.89 28.35 curveto
128.12 29.88 130.00 37.02 133.23 42.52 curveto
136.39 47.92 141.44 51.96 147.40 53.86 curveto
gsave grestore 0.85 setlinewidth [] 0 setdash 0 0 0 setrgbcolor stroke 
newpath 34.02 53.86 2.83 0 360 arc 
closepath gsave 0 0 0 setrgbcolor fill grestore 0.85 setlinewidth [] 0 setdash 0 0 0 setrgbcolor stroke 
newpath 64.06 19.84 2.83 0 360 arc 
closepath gsave 0 0 0 setrgbcolor fill grestore 0.85 setlinewidth [] 0 setdash 0 0 0 setrgbcolor stroke 
showpage
%%EOF
