%!PS-Adobe-3.0 EPSF-3.0
%%BoundingBox: 0 0 125 98
%%HiResBoundingBox: 0 0 124.09 97.27
%%Title: 
%%Creator: TpX drawing tool
%%CreationDate: 3/17/2018 4:53:52 PM
%%EndComments
newpath 5.67 63.25 moveto 11.69 71.45 19.43 78.22 28.35 83.10 curveto
37.93 88.34 48.61 91.25 59.53 91.60 curveto
gsave grestore 0.85 setlinewidth [] 0 setdash 0 0 0 setrgbcolor stroke 
newpath 5.67 63.25 moveto 15.36 56.02 23.95 47.43 31.18 37.74 curveto
38.30 28.21 44.03 17.71 48.19 6.56 curveto
gsave grestore 0.85 setlinewidth [] 0 setdash 0 0 0 setrgbcolor stroke 
newpath 59.53 91.60 moveto 73.20 83.23 83.29 70.11 87.87 54.75 curveto
91.46 42.73 91.46 29.92 87.87 17.90 curveto
gsave grestore 0.85 setlinewidth [] 0 setdash 0 0 0 setrgbcolor stroke 
newpath 48.19 6.56 moveto 49.97 12.59 54.04 17.67 59.53 20.73 curveto
68.64 25.81 79.95 24.68 87.87 17.90 curveto
gsave grestore 0.85 setlinewidth [] 0 setdash 0 0 0 setrgbcolor stroke 
newpath 39.69 71.76 2.83 0 360 arc 
closepath gsave 0 0 0 setrgbcolor fill grestore 0.85 setlinewidth [] 0 setdash 0 0 0 setrgbcolor stroke 
newpath 62.36 23.57 2.83 0 360 arc 
closepath gsave 0 0 0 setrgbcolor fill grestore 0.85 setlinewidth [] 0 setdash 0 0 0 setrgbcolor stroke 
newpath 39.69 71.76 moveto 52.87 78.28 67.53 81.21 82.20 80.26 curveto
92.03 79.63 102.09 76.91 107.72 68.92 curveto
112.30 62.42 112.48 54.12 113.39 46.25 curveto
114.52 36.38 116.62 25.75 110.55 17.90 curveto
105.95 11.95 98.24 9.95 90.71 9.40 curveto
81.75 8.74 72.54 9.90 65.20 15.06 curveto
64.09 15.84 63.03 16.72 62.36 17.90 curveto
61.36 19.66 61.36 21.81 62.36 23.57 curveto
gsave grestore 0.85 setlinewidth [] 0 setdash 0 0 0 setrgbcolor stroke 
newpath 35.94 74.45 moveto 50.43 81.62 66.57 84.85 82.71 83.80 curveto
93.51 83.11 104.58 80.12 110.77 71.33 curveto
115.81 64.18 116.01 55.05 117.01 46.39 curveto
118.25 35.53 120.56 23.84 113.89 15.21 curveto
108.83 8.66 100.35 6.46 92.06 5.85 curveto
82.21 5.13 72.08 6.41 64.00 12.09 curveto
62.78 12.94 61.62 13.91 60.88 15.21 curveto
59.78 17.14 59.78 19.51 60.88 21.44 curveto
gsave grestore 0.85 setlinewidth [5.67 2.83] 0 setdash 0 0 0 setrgbcolor stroke 
newpath 43.66 68.46 moveto 55.64 74.39 68.97 77.06 82.31 76.19 curveto
91.24 75.61 100.38 73.13 105.51 65.88 curveto
109.68 59.97 109.87 52.43 110.66 45.27 curveto
111.64 36.32 113.45 26.73 108.08 19.50 curveto
103.98 13.96 96.98 11.82 90.05 11.77 curveto
82.05 11.71 74.36 14.21 66.85 16.92 curveto
65.52 17.40 64.16 18.18 64.28 19.50 curveto
64.32 20.05 64.68 20.53 65.20 20.73 curveto
gsave grestore 0.85 setlinewidth [5.67 2.83] 0 setdash 0 0 0 setrgbcolor stroke 
showpage
%%EOF
