%!PS-Adobe-3.0 EPSF-3.0
%%BoundingBox: 0 0 105 81
%%HiResBoundingBox: 0 0 104.93 80.30
%%Title: 
%%Creator: TpX drawing tool
%%CreationDate: 3/18/2018 1:25:45 PM
%%EndComments
newpath 5.67 25.55 moveto 10.52 30.14 15.25 34.87 19.84 39.72 curveto
30.46 50.95 41.36 63.26 56.69 65.23 curveto
67.47 66.62 78.19 62.32 85.04 53.90 curveto
88.34 49.84 90.55 44.95 90.71 39.72 curveto
91.17 24.04 76.08 12.76 59.53 14.21 curveto
43.29 15.64 31.22 28.05 19.84 39.72 curveto
15.18 44.51 10.45 49.23 5.67 53.90 curveto
gsave grestore 0.85 setlinewidth [] 0 setdash 0 0 0 setrgbcolor stroke 
newpath 5.67 68.07 moveto 6.39 63.70 9.81 60.28 14.17 59.57 curveto
18.12 58.92 21.92 60.64 25.51 62.40 curveto
34.69 66.90 43.81 71.79 53.86 73.74 curveto
64.66 75.83 76.01 74.34 85.04 68.07 curveto
94.31 61.63 99.80 50.98 99.21 39.72 curveto
98.21 20.72 81.76 6.53 62.36 5.71 curveto
47.96 5.10 34.72 11.97 22.68 19.88 curveto
20.90 21.05 19.09 22.26 17.01 22.71 curveto
13.87 23.40 10.60 22.31 8.50 19.88 curveto
gsave grestore 0.85 setlinewidth [] 0 setdash 0 0 0 setrgbcolor stroke 
newpath 42.52 39.72 moveto 43.18 45.70 50.37 47.09 56.69 48.23 curveto
63.20 49.39 70.61 50.83 73.70 45.39 curveto
75.81 41.68 74.05 37.16 70.87 34.05 curveto
64.83 28.17 55.62 27.16 48.19 31.22 curveto
44.87 33.03 42.11 36.07 42.52 39.72 curveto
closepath gsave grestore 0.85 setlinewidth [] 0 setdash 0 0 0 setrgbcolor stroke 
showpage
%%EOF
