%!PS-Adobe-3.0 EPSF-3.0
%%BoundingBox: 0 0 369 96
%%HiResBoundingBox: 0 0 368.52 95.64
%%Title: 
%%Creator: TpX drawing tool
%%CreationDate: 3/19/2018 2:48:54 PM
%%EndComments
newpath 5.67 36.00 moveto 10.20 57.52 32.09 70.62 53.20 64.44 curveto
68.25 60.03 78.25 46.16 92.55 39.90 curveto
112.39 31.20 134.35 38.31 154.88 45.35 curveto
171.88 51.18 189.74 56.77 207.09 51.98 curveto
221.83 47.90 233.63 36.82 238.64 22.37 curveto
gsave grestore 0.85 setlinewidth [] 0 setdash 0 0 0 setrgbcolor stroke 
newpath 261.63 47.30 moveto 237.33 74.59 196.42 79.28 166.57 58.21 curveto
154.15 49.44 144.95 36.54 131.50 29.38 curveto
121.57 24.09 109.63 22.52 100.34 28.60 curveto
88.43 36.39 87.05 53.11 76.57 62.49 curveto
69.95 68.43 60.84 70.49 52.03 69.12 curveto
42.81 67.68 34.54 62.63 29.04 55.09 curveto
gsave grestore 0.85 setlinewidth [] 0 setdash 0 0 0 setrgbcolor stroke 
newpath 90.50 39.90 moveto 92.64 36.39 lineto 95.96 33.08 lineto 98.88 29.96 lineto 102.77 27.24 lineto 108.03 25.48 lineto 114.46 25.09 lineto 120.31 25.68 lineto 125.56 27.43 lineto 130.82 29.57 lineto 139.98 35.22 lineto 
143.10 37.75 lineto 146.41 39.90 lineto 149.13 42.43 lineto 149.72 43.02 lineto 141.34 41.65 lineto 134.14 39.31 lineto 127.90 37.37 lineto 124.20 37.17 lineto 119.33 36.00 lineto 116.41 35.61 lineto 
111.34 35.03 lineto 106.86 35.61 lineto 101.80 36.20 lineto 98.10 37.75 lineto closepath 0.75294 0.75294 0.75294 setrgbcolor fill 
newpath 5.67 36.00 moveto 10.20 57.52 32.09 70.62 53.20 64.44 curveto
68.25 60.03 78.25 46.16 92.55 39.90 curveto
112.39 31.20 134.35 38.31 154.88 45.35 curveto
171.88 51.18 189.74 56.77 207.09 51.98 curveto
221.83 47.90 233.63 36.82 238.64 22.37 curveto
gsave grestore 0.85 setlinewidth [] 0 setdash 0 0 0 setrgbcolor stroke 
newpath 261.63 47.30 moveto 237.33 74.59 196.42 79.28 166.57 58.21 curveto
154.15 49.44 144.95 36.54 131.50 29.38 curveto
121.57 24.09 109.63 22.52 100.34 28.60 curveto
88.43 36.39 87.05 53.11 76.57 62.49 curveto
69.95 68.43 60.84 70.49 52.03 69.12 curveto
42.81 67.68 34.54 62.63 29.04 55.09 curveto
gsave grestore 0.85 setlinewidth [] 0 setdash 0 0 0 setrgbcolor stroke 
showpage
%%EOF
