%!PS-Adobe-3.0 EPSF-3.0
%%BoundingBox: 0 0 319 177
%%HiResBoundingBox: 0 0 318.63 176.61
%%Title: 
%%Creator: TpX drawing tool
%%CreationDate: 3/18/2018 11:03:33 PM
%%EndComments
newpath 14.17 74.56 moveto 47.91 102.68 89.59 119.55 133.38 122.81 curveto
172.49 125.73 211.63 117.63 246.36 99.44 curveto
gsave grestore 0.85 setlinewidth [] 0 setdash 0 0 0 setrgbcolor stroke 
newpath 18.07 109.18 moveto 24.66 102.59 31.90 96.69 39.69 91.57 curveto
106.01 47.93 194.80 63.12 242.86 126.32 curveto
gsave grestore 0.85 setlinewidth [] 0 setdash 0 0 0 setrgbcolor stroke 
newpath 5.67 26.37 moveto 291.97 26.37 lineto gsave grestore 0.85 setlinewidth [] 0 setdash 0 0 0 setrgbcolor stroke 
newpath 14.17 12.20 moveto 14.17 170.94 lineto gsave grestore 0.85 setlinewidth [] 0 setdash 0 0 0 setrgbcolor stroke 
newpath 39.69 91.57 moveto 39.69 26.37 lineto gsave grestore 0.85 setlinewidth [5.67 2.83] 0 setdash 0 0 0 setrgbcolor stroke 
newpath 226.77 108.58 moveto 226.77 26.37 lineto gsave grestore 0.85 setlinewidth [5.67 2.83] 0 setdash 0 0 0 setrgbcolor stroke 
newpath 39.63 92.48 moveto 53.96 99.91 lineto 67.46 106.25 lineto 83.16 112.86 lineto 104.10 118.10 lineto 119.52 121.13 lineto 136.33 122.50 lineto 146.24 123.33 lineto 164.43 123.06 lineto 178.75 121.40 lineto 198.58 117.27 lineto 
216.22 112.59 lineto 226.96 108.18 lineto 221.45 104.87 lineto 219.52 101.29 lineto 201.62 88.90 lineto 187.29 80.91 lineto 176.00 76.22 lineto 164.43 72.92 lineto 151.48 69.06 lineto 129.16 66.58 lineto 
118.70 66.86 lineto 102.17 68.51 lineto 83.43 71.82 lineto 66.91 77.33 lineto 55.34 82.56 lineto closepath 0.75294 0.75294 0.75294 setrgbcolor fill 
newpath 14.17 74.56 moveto 47.91 102.68 89.59 119.55 133.38 122.81 curveto
172.49 125.73 211.63 117.63 246.36 99.44 curveto
gsave grestore 0.85 setlinewidth [] 0 setdash 0 0 0 setrgbcolor stroke 
newpath 18.07 109.18 moveto 24.66 102.59 31.90 96.69 39.69 91.57 curveto
106.01 47.93 194.80 63.12 242.86 126.32 curveto
gsave grestore 0.85 setlinewidth [] 0 setdash 0 0 0 setrgbcolor stroke 
showpage
%%EOF
