%!PS-Adobe-3.0 EPSF-3.0
%%BoundingBox: 0 0 106 128
%%HiResBoundingBox: 0 0 105.98 127.56
%%Title: 
%%Creator: TpX drawing tool
%%CreationDate: 3/18/2018 2:26:11 PM
%%EndComments
newpath 69.18 5.67 moveto 60.19 16.47 50.73 26.87 40.83 36.85 curveto
27.06 50.74 12.00 65.56 12.49 85.04 curveto
12.78 96.83 19.21 107.63 29.49 113.39 curveto
41.23 119.95 55.75 118.83 66.34 110.55 curveto
gsave grestore 0.85 setlinewidth [] 0 setdash 0 0 0 setrgbcolor stroke 
newpath 16.74 97.80 moveto 19.57 103.46 lineto 22.41 106.30 lineto 26.66 110.55 lineto 32.33 114.80 lineto 40.83 117.64 lineto 46.50 117.64 lineto 55.01 116.22 lineto closepath 0.75294 0.75294 0.75294 setrgbcolor fill 
newpath 43.67 5.67 moveto 64.50 14.75 81.53 30.78 91.86 51.02 curveto
101.70 70.32 104.47 93.41 91.86 110.55 curveto
87.06 117.07 80.05 121.97 72.01 121.89 curveto
65.94 121.83 60.47 118.81 55.01 116.22 curveto
41.58 109.86 26.89 105.77 15.32 96.38 curveto
11.67 93.41 8.42 89.98 5.67 86.16 curveto
gsave grestore 0.85 setlinewidth [] 0 setdash 0 0 0 setrgbcolor stroke 
newpath 69.18 5.67 moveto 60.19 16.47 50.73 26.87 40.83 36.85 curveto
27.06 50.74 12.00 65.56 12.49 85.04 curveto
12.78 96.83 19.21 107.63 29.49 113.39 curveto
41.23 119.95 55.75 118.83 66.34 110.55 curveto
gsave grestore 0.85 setlinewidth [] 0 setdash 0 0 0 setrgbcolor stroke 
showpage
%%EOF
