%!PS-Adobe-3.0 EPSF-3.0
%%BoundingBox: 0 0 130 119
%%HiResBoundingBox: 0 0 129.13 118.94
%%Title: 
%%Creator: TpX drawing tool
%%CreationDate: 3/17/2018 4:59:06 PM
%%EndComments
newpath 54.45 90.77 moveto 58.47 91.69 62.48 92.65 66.48 93.65 curveto
91.71 99.97 119.73 98.15 123.18 76.65 curveto
126.19 57.83 104.84 48.45 89.16 36.96 curveto
72.38 24.67 59.20 3.98 38.14 5.78 curveto
4.44 8.66 -7.47 55.31 23.97 79.48 curveto
28.42 82.90 33.51 85.37 38.80 87.23 curveto
39.15 87.36 39.50 87.48 39.86 87.59 curveto
gsave grestore 0.85 setlinewidth [] 0 setdash 0 0 0 setrgbcolor stroke 
newpath 39.86 87.59 moveto 31.77 86.34 lineto 39.86 87.59 lineto 33.31 82.68 lineto 39.86 87.59 lineto closepath gsave 0 0 0 setrgbcolor fill grestore 0.85 setlinewidth [] 0 setdash 0 0 0 setrgbcolor stroke 
newpath 39.86 87.59 moveto 39.86 87.59 54.45 90.77 54.45 90.77 curveto
gsave grestore 0.85 setlinewidth [5.67 2.83] 0 setdash 0 0 0 setrgbcolor stroke 
newpath 15.46 90.82 moveto 20.42 92.05 25.19 93.96 29.63 96.49 curveto
33.76 98.83 37.57 101.69 40.97 104.99 curveto
gsave grestore 0.85 setlinewidth [] 0 setdash 0 0 0 setrgbcolor stroke 
newpath 40.97 104.99 moveto 45.38 98.19 51.18 92.39 57.98 87.98 curveto
61.54 85.68 65.34 83.78 69.32 82.31 curveto
gsave grestore 0.85 setlinewidth [] 0 setdash 0 0 0 setrgbcolor stroke 
newpath 69.32 82.31 moveto 64.11 78.64 58.38 75.77 52.31 73.81 curveto
47.71 72.33 42.96 71.37 38.14 70.98 curveto
gsave grestore 0.85 setlinewidth [] 0 setdash 0 0 0 setrgbcolor stroke 
newpath 38.14 70.98 moveto 36.29 72.91 34.40 74.80 32.47 76.65 curveto
27.12 81.74 21.44 86.48 15.46 90.82 curveto
gsave grestore 0.85 setlinewidth [] 0 setdash 0 0 0 setrgbcolor stroke 
showpage
%%EOF
