%!PS-Adobe-3.0 EPSF-3.0
%%BoundingBox: 0 0 305 218
%%HiResBoundingBox: 0 0 304.81 217.49
%%Title: 
%%Creator: TpX drawing tool
%%CreationDate: 6/4/2017 11:24:00 AM
%%EndComments
newpath 27.61 146.40 2.83 0 360 arc 
closepath gsave 0 0 0 setrgbcolor fill grestore 0.85 setlinewidth [] 0 setdash 0 0 0 setrgbcolor stroke 
newpath 27.61 146.40 moveto 70.20 39.92 lineto gsave grestore 1.70 setlinewidth [] 0 setdash 0 0 0 setrgbcolor stroke 
newpath 70.20 18.62 moveto 70.20 210.29 lineto gsave grestore 0.85 setlinewidth [] 0 setdash 0 0 0 setrgbcolor stroke 
newpath 70.20 210.29 moveto 68.22 202.35 lineto 70.20 210.29 lineto 72.18 202.35 lineto 70.20 210.29 lineto closepath gsave 0 0 0 setrgbcolor fill grestore 0.85 setlinewidth [] 0 setdash 0 0 0 setrgbcolor stroke 
newpath 70.20 18.62 moveto 283.17 18.62 lineto gsave grestore 0.85 setlinewidth [] 0 setdash 0 0 0 setrgbcolor stroke 
newpath 283.17 18.62 moveto 275.23 20.60 lineto 283.17 18.62 lineto 275.23 16.63 lineto 283.17 18.62 lineto closepath gsave 0 0 0 setrgbcolor fill grestore 0.85 setlinewidth [] 0 setdash 0 0 0 setrgbcolor stroke 
newpath 70.20 39.92 85.19 90.00 110.56 arc gsave grestore 0.85 setlinewidth [] 0 setdash 0 0 0 setrgbcolor stroke 
newpath 40.29 119.68 moveto 48.45 120.23 lineto 40.29 119.68 lineto 47.23 124.01 lineto 40.29 119.68 lineto closepath gsave 0 0 0 setrgbcolor fill grestore 0.85 setlinewidth [] 0 setdash 0 0 0 setrgbcolor stroke 
newpath 27.61 146.40 moveto 27.61 103.81 lineto gsave grestore 0.85 setlinewidth [] 0 setdash 0 0 0 setrgbcolor stroke 
newpath 27.61 103.81 moveto 29.59 111.74 lineto 27.61 103.81 lineto 25.62 111.74 lineto 27.61 103.81 lineto closepath gsave 0 0 0 setrgbcolor fill grestore 0.85 setlinewidth [] 0 setdash 0 0 0 setrgbcolor stroke 
showpage
%%EOF
