%!PS-Adobe-3.0 EPSF-3.0
%%BoundingBox: 0 0 266 115
%%HiResBoundingBox: 0 0 265.23 114.92
%%Title: 
%%Creator: TpX drawing tool
%%CreationDate: 3/19/2018 2:47:45 PM
%%EndComments
newpath 56.65 24.44 moveto 56.65 103.81 lineto gsave grestore 0.85 setlinewidth [] 0 setdash 0 0 0 setrgbcolor stroke 
newpath 56.65 103.81 moveto 54.67 95.87 lineto 56.65 103.81 lineto 58.64 95.87 lineto 56.65 103.81 lineto closepath gsave 0 0 0 setrgbcolor fill grestore 0.85 setlinewidth [] 0 setdash 0 0 0 setrgbcolor stroke 
newpath 25.47 44.28 moveto 209.72 44.28 lineto gsave grestore 0.85 setlinewidth [] 0 setdash 0 0 0 setrgbcolor stroke 
newpath 209.72 44.28 moveto 201.79 46.27 lineto 209.72 44.28 lineto 201.79 42.30 lineto 209.72 44.28 lineto closepath gsave 0 0 0 setrgbcolor fill grestore 0.85 setlinewidth [] 0 setdash 0 0 0 setrgbcolor stroke 
newpath 50.98 38.61 moveto 52.83 40.55 54.72 42.44 56.65 44.28 curveto
71.74 58.64 89.84 70.13 110.51 72.63 curveto
137.90 75.94 164.06 63.28 184.21 44.28 curveto
186.16 42.45 188.05 40.56 189.88 38.61 curveto
gsave grestore 0.85 setlinewidth [] 0 setdash 0 0 0 setrgbcolor stroke 
newpath 189.88 49.34 moveto 188.04 47.41 186.15 45.52 184.21 43.68 curveto
169.13 29.32 151.03 17.83 130.35 15.33 curveto
102.97 12.02 76.81 24.68 56.65 43.68 curveto
54.71 45.51 52.82 47.40 50.98 49.34 curveto
gsave grestore 0.85 setlinewidth [] 0 setdash 0 0 0 setrgbcolor stroke 
newpath 45.31 66.96 moveto 47.67 63.03 52.09 60.82 56.65 61.29 curveto
62.29 61.87 66.43 66.25 70.83 69.79 curveto
84.26 80.62 101.76 84.07 119.01 83.97 curveto
136.22 83.87 153.56 80.27 167.20 69.79 curveto
172.45 65.76 177.62 60.68 184.21 61.29 curveto
187.82 61.63 191.02 63.76 192.72 66.96 curveto
gsave grestore 0.85 setlinewidth [] 0 setdash 0 0 0 setrgbcolor stroke 
newpath 45.31 22.68 moveto 47.67 26.61 52.09 28.82 56.65 28.35 curveto
62.29 27.77 66.43 23.39 70.83 19.84 curveto
84.26 9.02 101.76 5.57 119.01 5.67 curveto
136.22 5.77 153.56 9.36 167.20 19.84 curveto
172.45 23.87 177.62 28.96 184.21 28.35 curveto
187.82 28.01 191.02 25.88 192.72 22.68 curveto
gsave grestore 0.85 setlinewidth [] 0 setdash 0 0 0 setrgbcolor stroke 
newpath 184.21 24.44 moveto 184.21 103.81 lineto gsave grestore 0.85 setlinewidth [] 0 setdash 0 0 0 setrgbcolor stroke 
newpath 184.21 103.81 moveto 182.23 95.87 lineto 184.21 103.81 lineto 186.20 95.87 lineto 184.21 103.81 lineto closepath gsave 0 0 0 setrgbcolor fill grestore 0.85 setlinewidth [] 0 setdash 0 0 0 setrgbcolor stroke 
newpath 56.64 43.91 2.83 0 360 arc 
closepath gsave 0 0 0 setrgbcolor fill grestore 0.85 setlinewidth [] 0 setdash 0 0 0 setrgbcolor stroke 
newpath 184.53 44.47 2.83 0 360 arc 
closepath gsave 0 0 0 setrgbcolor fill grestore 0.85 setlinewidth [] 0 setdash 0 0 0 setrgbcolor stroke 
showpage
%%EOF
