%!PS-Adobe-3.0 EPSF-3.0
%%BoundingBox: 0 0 295 182
%%HiResBoundingBox: 0 0 294.80 181.42
%%Title: 
%%Creator: TpX drawing tool
%%CreationDate: 3/19/2018 9:53:52 AM
%%EndComments
newpath 5.67 76.54 moveto 289.13 76.54 lineto gsave grestore 0.85 setlinewidth [] 0 setdash 0 0 0 setrgbcolor stroke 
newpath 62.36 5.67 moveto 62.36 175.75 lineto gsave grestore 0.85 setlinewidth [] 0 setdash 0 0 0 setrgbcolor stroke 
newpath 167.08 118.70 moveto 177.00 118.70 lineto gsave grestore 0.85 setlinewidth [] 0 setdash 0 0 0 setrgbcolor stroke 
newpath 177.00 118.70 moveto 169.06 120.68 lineto 177.00 118.70 lineto 169.06 116.72 lineto 177.00 118.70 lineto closepath gsave 0 0 0 setrgbcolor fill grestore 0.85 setlinewidth [] 0 setdash 0 0 0 setrgbcolor stroke 
newpath 48.62 90.05 moveto 52.78 85.23 57.20 80.63 61.85 76.28 curveto
104.95 35.93 164.70 18.54 222.73 29.44 curveto
gsave grestore 0.85 setlinewidth [] 0 setdash 0 0 0 setrgbcolor stroke 
newpath 49.72 63.05 moveto 53.55 67.99 57.79 72.60 62.40 76.83 curveto
79.72 92.74 101.37 102.67 123.55 110.44 curveto
140.28 116.29 157.69 121.00 175.34 119.25 curveto
185.22 118.27 194.78 115.27 203.44 110.44 curveto
gsave grestore 0.85 setlinewidth [] 0 setdash 0 0 0 setrgbcolor stroke 
newpath 275.07 63.60 moveto 269.88 67.75 265.09 72.36 260.74 77.38 curveto
246.34 94.00 234.75 115.83 212.81 118.70 curveto
200.23 120.35 188.28 114.46 175.89 112.09 curveto
158.95 108.85 141.41 112.20 126.86 121.45 curveto
gsave grestore 0.85 setlinewidth [] 0 setdash 0 0 0 setrgbcolor stroke 
newpath 273.41 88.40 moveto 269.18 84.55 264.96 80.69 260.74 76.83 curveto
245.77 63.11 230.88 49.28 215.01 36.61 curveto
204.51 28.22 193.15 20.20 179.75 18.98 curveto
161.38 17.30 144.27 28.48 138.43 45.97 curveto
gsave grestore 0.85 setlinewidth [] 0 setdash 0 0 0 setrgbcolor stroke 
showpage
%%EOF
