%!PS-Adobe-3.0 EPSF-3.0
%%BoundingBox: 0 0 321 185
%%HiResBoundingBox: 0 0 320.73 184.59
%%Title: 
%%Creator: TpX drawing tool
%%CreationDate: 3/19/2018 9:54:02 AM
%%EndComments
newpath 5.67 76.54 moveto 289.13 76.54 lineto gsave grestore 0.85 setlinewidth [] 0 setdash 0 0 0 setrgbcolor stroke 
newpath 62.36 5.67 moveto 62.36 175.75 lineto gsave grestore 0.85 setlinewidth [] 0 setdash 0 0 0 setrgbcolor stroke 
newpath 48.19 62.36 moveto 52.68 67.31 57.41 72.04 62.36 76.54 curveto
89.95 101.58 124.35 119.06 161.57 119.06 curveto
198.80 119.06 233.20 101.58 260.79 76.54 curveto
265.74 72.04 270.47 67.31 274.96 62.36 curveto
gsave grestore 0.85 setlinewidth [] 0 setdash 0 0 0 setrgbcolor stroke 
newpath 48.19 90.71 moveto 52.68 85.76 57.41 81.03 62.36 76.54 curveto
89.95 51.49 124.35 34.02 161.57 34.02 curveto
198.80 34.02 233.20 51.49 260.79 76.54 curveto
265.74 81.03 270.47 85.76 274.96 90.71 curveto
gsave grestore 0.85 setlinewidth [] 0 setdash 0 0 0 setrgbcolor stroke 
newpath 167.08 118.70 moveto 177.00 118.70 lineto gsave grestore 0.85 setlinewidth [] 0 setdash 0 0 0 setrgbcolor stroke 
newpath 177.00 118.70 moveto 169.06 120.68 lineto 177.00 118.70 lineto 169.06 116.72 lineto 177.00 118.70 lineto closepath gsave 0 0 0 setrgbcolor fill grestore 0.85 setlinewidth [] 0 setdash 0 0 0 setrgbcolor stroke 
showpage
%%EOF
