%!PS-Adobe-3.0 EPSF-3.0
%%BoundingBox: 0 0 228 171
%%HiResBoundingBox: 0 0 227.43 170.84
%%Title: 
%%Creator: TpX drawing tool
%%CreationDate: 3/19/2018 11:07:56 AM
%%EndComments
newpath 25.43 79.19 moveto 17.45 76.39 8.75 80.83 6.34 88.93 curveto
3.21 99.40 11.46 109.80 22.70 109.97 curveto
30.23 110.07 36.59 105.13 43.74 102.95 curveto
51.86 100.48 60.64 101.65 67.89 106.07 curveto
75.75 110.87 81.05 119.13 80.75 128.28 curveto
80.60 132.81 78.96 137.22 75.68 140.35 curveto
68.37 147.33 56.98 145.87 48.02 140.35 curveto
42.16 136.74 37.20 131.51 35.94 124.77 curveto
33.74 112.93 42.75 102.56 54.26 97.50 curveto
63.71 93.34 74.30 92.39 84.25 95.16 curveto
97.17 98.75 109.99 108.10 122.04 101.78 curveto
127.68 98.83 131.15 92.84 130.22 86.59 curveto
129.35 80.69 124.78 76.24 119.32 73.73 curveto
111.76 70.27 102.80 70.56 96.72 76.07 curveto
86.81 85.06 89.85 100.59 98.28 112.30 curveto
108.40 126.37 123.86 135.91 141.13 136.85 curveto
157.38 137.72 175.45 140.01 173.86 153.60 curveto
172.66 163.84 159.95 166.62 148.15 164.51 curveto
138.77 162.83 129.11 159.63 124.77 151.26 curveto
118.25 138.68 127.07 124.62 138.80 115.03 curveto
144.56 110.32 150.81 106.23 157.50 102.95 curveto
167.56 98.03 178.43 95.04 188.66 90.49 curveto
202.35 84.39 218.23 82.30 221.39 93.99 curveto
223.44 101.58 216.59 107.67 210.09 112.69 curveto
200.51 120.09 189.20 127.61 179.70 121.26 curveto
171.61 115.85 172.43 104.73 173.08 94.77 curveto
173.46 88.93 173.41 83.07 173.86 77.24 curveto
174.65 66.92 177.00 56.78 177.75 46.46 curveto
178.45 37.00 177.43 26.93 170.35 20.75 curveto
162.97 14.30 152.23 14.79 143.08 18.80 curveto
133.74 22.90 126.29 30.08 118.93 37.11 curveto
115.85 40.05 112.75 42.98 109.19 45.29 curveto
103.61 48.91 96.99 50.90 90.49 49.58 curveto
83.88 48.24 78.57 43.73 74.12 38.67 curveto
68.07 31.78 63.60 22.86 67.50 14.91 curveto
73.02 3.66 87.95 5.46 101.01 6.33 curveto
108.30 6.82 116.03 6.40 122.04 10.62 curveto
128.23 14.96 130.50 22.63 131.78 30.10 curveto
133.36 39.24 134.68 49.36 142.69 53.86 curveto
145.29 55.33 148.31 55.88 151.26 55.42 curveto
gsave grestore 0.85 setlinewidth [] 0 setdash 0 0 0 setrgbcolor stroke 
newpath 22.31 94.38 2.83 0 360 arc 
closepath gsave 0 0 0 setrgbcolor fill grestore 0.85 setlinewidth [] 0 setdash 0 0 0 setrgbcolor stroke 
newpath 57.76 122.82 2.83 0 360 arc 
closepath gsave 0 0 0 setrgbcolor fill grestore 0.85 setlinewidth [] 0 setdash 0 0 0 setrgbcolor stroke 
newpath 107.24 89.71 2.83 0 360 arc 
closepath gsave 0 0 0 setrgbcolor fill grestore 0.85 setlinewidth [] 0 setdash 0 0 0 setrgbcolor stroke 
newpath 146.59 149.70 2.83 0 360 arc 
closepath gsave 0 0 0 setrgbcolor fill grestore 0.85 setlinewidth [] 0 setdash 0 0 0 setrgbcolor stroke 
newpath 192.17 105.68 2.83 0 360 arc 
closepath gsave 0 0 0 setrgbcolor fill grestore 0.85 setlinewidth [] 0 setdash 0 0 0 setrgbcolor stroke 
newpath 152.04 33.61 2.83 0 360 arc 
closepath gsave 0 0 0 setrgbcolor fill grestore 0.85 setlinewidth [] 0 setdash 0 0 0 setrgbcolor stroke 
newpath 89.32 26.20 2.83 0 360 arc 
closepath gsave 0 0 0 setrgbcolor fill grestore 0.85 setlinewidth [] 0 setdash 0 0 0 setrgbcolor stroke 
showpage
%%EOF
