%!PS-Adobe-3.0 EPSF-3.0
%%BoundingBox: 0 0 206 162
%%HiResBoundingBox: 0 0 205.20 161.57
%%Title: 
%%Creator: TpX drawing tool
%%CreationDate: 3/19/2018 2:45:20 PM
%%EndComments
newpath 48.19 68.26 moveto 48.19 144.79 lineto gsave grestore 0.85 setlinewidth [] 0 setdash 0 0 0 setrgbcolor stroke 
newpath 48.19 144.79 moveto 46.20 136.86 lineto 48.19 144.79 lineto 50.17 136.86 lineto 48.19 144.79 lineto closepath gsave 0 0 0 setrgbcolor fill grestore 0.85 setlinewidth [] 0 setdash 0 0 0 setrgbcolor stroke 
newpath 48.19 68.26 moveto 5.67 17.23 lineto gsave grestore 0.85 setlinewidth [] 0 setdash 0 0 0 setrgbcolor stroke 
newpath 5.67 17.23 moveto 12.27 22.06 lineto 5.67 17.23 lineto 9.23 24.60 lineto 5.67 17.23 lineto closepath gsave 0 0 0 setrgbcolor fill grestore 0.85 setlinewidth [] 0 setdash 0 0 0 setrgbcolor stroke 
newpath 45.35 68.26 moveto 189.92 68.26 lineto gsave grestore 0.85 setlinewidth [] 0 setdash 0 0 0 setrgbcolor stroke 
newpath 189.92 68.26 moveto 181.98 70.24 lineto 189.92 68.26 lineto 181.98 66.27 lineto 189.92 68.26 lineto closepath gsave 0 0 0 setrgbcolor fill grestore 0.85 setlinewidth [] 0 setdash 0 0 0 setrgbcolor stroke 
newpath 19.84 34.24 moveto 19.84 96.60 lineto 48.19 130.62 lineto 48.19 68.26 lineto closepath gsave grestore 0.85 setlinewidth [] 0 setdash 0 0 0 setrgbcolor stroke 
newpath 116.22 34.24 moveto 116.22 96.60 lineto 144.57 130.62 lineto 144.57 68.26 lineto closepath gsave grestore 0.85 setlinewidth [] 0 setdash 0 0 0 setrgbcolor stroke 
newpath 34.02 96.60 moveto 38.10 105.40 46.99 110.96 56.69 110.78 curveto
68.96 110.55 78.83 101.70 85.04 90.94 curveto
88.86 84.32 91.46 76.96 96.38 71.09 curveto
104.00 62.01 115.89 57.68 127.56 59.75 curveto
gsave grestore 0.85 setlinewidth [] 0 setdash 0 0 0 setrgbcolor stroke 
newpath 127.56 59.75 moveto 31.18 59.75 lineto gsave grestore 0.85 setlinewidth [5.67 2.83] 0 setdash 0 0 0 setrgbcolor stroke 
newpath 127.56 59.75 2.83 0 360 arc 
closepath gsave 0 0 0 setrgbcolor fill grestore 0.85 setlinewidth [] 0 setdash 0 0 0 setrgbcolor stroke 
newpath 31.18 59.75 2.83 0 360 arc 
closepath gsave 0 0 0 setrgbcolor fill grestore 0.85 setlinewidth [] 0 setdash 0 0 0 setrgbcolor stroke 
newpath 34.02 96.60 2.83 0 360 arc 
closepath gsave 0 0 0 setrgbcolor fill grestore 0.85 setlinewidth [] 0 setdash 0 0 0 setrgbcolor stroke 
showpage
%%EOF
