%!PS-Adobe-3.0 EPSF-3.0
%%BoundingBox: 0 0 109 158
%%HiResBoundingBox: 0 0 108.41 157.10
%%Title: 
%%Creator: TpX drawing tool
%%CreationDate: 3/18/2018 2:25:27 PM
%%EndComments
newpath 71.61 24.09 moveto 62.61 34.89 53.15 45.30 43.26 55.28 curveto
29.49 69.16 14.43 83.98 14.91 103.46 curveto
15.21 115.26 21.63 126.05 31.92 131.81 curveto
43.65 138.38 58.18 137.26 68.77 128.98 curveto
gsave grestore 0.85 setlinewidth [] 0 setdash 0 0 0 setrgbcolor stroke 
newpath 58.00 134.65 2.83 0 360 arc 
closepath gsave 0 0 0 setrgbcolor fill grestore 0.85 setlinewidth [] 0 setdash 0 0 0 setrgbcolor stroke 
newpath 58.85 134.65 moveto 34.76 141.73 lineto gsave grestore 0.85 setlinewidth [] 0 setdash 0 0 0 setrgbcolor stroke 
newpath 34.76 141.73 moveto 41.81 137.59 lineto 34.76 141.73 lineto 42.93 141.40 lineto 34.76 141.73 lineto closepath gsave 0 0 0 setrgbcolor fill grestore 0.85 setlinewidth [] 0 setdash 0 0 0 setrgbcolor stroke 
newpath 46.09 24.09 moveto 66.92 33.18 83.95 49.21 94.28 69.45 curveto
104.13 88.74 106.91 111.84 94.28 128.98 curveto
89.48 135.49 82.48 140.38 74.44 140.31 curveto
68.37 140.27 62.88 137.28 57.43 134.65 curveto
44.07 128.20 29.69 123.64 17.75 114.80 curveto
12.75 111.11 8.21 106.58 6.41 100.63 curveto
4.90 95.65 5.62 90.13 9.24 86.46 curveto
12.91 82.74 18.40 82.13 23.42 80.79 curveto
28.34 79.46 32.98 77.29 37.59 75.12 curveto
42.12 72.98 46.72 69.88 46.09 65.20 curveto
45.67 62.07 42.86 60.12 40.42 58.11 curveto
36.81 55.13 33.84 51.47 30.50 48.19 curveto
28.05 45.78 26.78 42.42 29.09 41.10 curveto
29.94 40.61 30.97 40.82 31.92 41.10 curveto
37.25 42.72 41.62 46.32 46.09 49.61 curveto
49.37 52.02 52.74 54.28 56.02 56.69 curveto
58.99 58.88 61.89 61.19 64.52 63.78 curveto
66.93 66.16 70.24 67.48 71.61 65.20 curveto
72.12 64.35 71.94 63.30 71.61 62.36 curveto
69.98 57.83 65.54 55.29 61.68 52.44 curveto
58.18 49.85 55.05 46.80 51.76 43.94 curveto
45.93 38.86 39.47 34.31 31.92 32.60 curveto
28.20 31.76 24.89 29.54 26.25 26.93 curveto
26.77 25.92 27.93 25.49 29.09 25.51 curveto
30.60 25.54 31.99 26.25 33.34 26.93 curveto
38.05 29.31 42.89 31.46 47.51 34.02 curveto
51.41 36.17 55.15 38.61 58.85 41.10 curveto
63.63 44.33 68.34 47.66 73.02 51.02 curveto
76.32 53.39 79.62 55.78 82.94 58.11 curveto
84.04 58.88 85.42 59.09 85.78 58.11 curveto
86.02 57.47 85.48 56.87 84.93 56.41 curveto
83.90 55.54 82.87 54.68 81.81 53.86 curveto
79.88 52.37 77.84 51.03 75.86 49.61 curveto
70.40 45.68 65.44 41.13 60.27 36.85 curveto
44.51 23.81 26.81 13.29 7.83 5.67 curveto
gsave grestore 0.85 setlinewidth [] 0 setdash 0 0 0 setrgbcolor stroke 
newpath 17.75 114.80 2.83 0 360 arc 
closepath gsave 0 0 0 setrgbcolor fill grestore 0.85 setlinewidth [] 0 setdash 0 0 0 setrgbcolor stroke 
newpath 19.16 116.22 moveto 22.00 121.89 lineto 24.83 124.72 lineto 29.09 128.98 lineto 34.76 133.23 lineto 43.26 136.06 lineto 48.93 136.06 lineto 57.43 134.65 lineto closepath 0.75294 0.75294 0.75294 setrgbcolor fill 
newpath 57.52 134.98 moveto 37.50 125.41 lineto gsave grestore 0.85 setlinewidth [] 0 setdash 0 0 0 setrgbcolor stroke 
newpath 37.50 125.41 moveto 45.52 127.04 lineto 37.50 125.41 lineto 43.81 130.62 lineto 37.50 125.41 lineto closepath gsave 0 0 0 setrgbcolor fill grestore 0.85 setlinewidth [] 0 setdash 0 0 0 setrgbcolor stroke 
newpath 21.82 81.18 moveto 32.11 77.67 lineto 40.64 73.40 lineto 44.66 69.64 lineto 45.66 64.62 lineto 44.66 62.11 lineto 40.53 59.16 lineto 39.91 58.80 lineto 32.11 67.63 lineto closepath 0.75294 0.75294 0.75294 setrgbcolor fill 
newpath 46.09 24.09 moveto 66.92 33.18 83.95 49.21 94.28 69.45 curveto
104.13 88.74 106.91 111.84 94.28 128.98 curveto
89.48 135.49 82.48 140.38 74.44 140.31 curveto
68.37 140.27 62.88 137.28 57.43 134.65 curveto
44.07 128.20 29.69 123.64 17.75 114.80 curveto
12.75 111.11 8.21 106.58 6.41 100.63 curveto
4.90 95.65 5.62 90.13 9.24 86.46 curveto
12.91 82.74 18.40 82.13 23.42 80.79 curveto
28.34 79.46 32.98 77.29 37.59 75.12 curveto
42.12 72.98 46.72 69.88 46.09 65.20 curveto
45.67 62.07 42.86 60.12 40.42 58.11 curveto
36.81 55.13 33.84 51.47 30.50 48.19 curveto
28.05 45.78 26.78 42.42 29.09 41.10 curveto
29.94 40.61 30.97 40.82 31.92 41.10 curveto
37.25 42.72 41.62 46.32 46.09 49.61 curveto
49.37 52.02 52.74 54.28 56.02 56.69 curveto
58.99 58.88 61.89 61.19 64.52 63.78 curveto
66.93 66.16 70.24 67.48 71.61 65.20 curveto
72.12 64.35 71.94 63.30 71.61 62.36 curveto
69.98 57.83 65.54 55.29 61.68 52.44 curveto
58.18 49.85 55.05 46.80 51.76 43.94 curveto
45.93 38.86 39.47 34.31 31.92 32.60 curveto
28.20 31.76 24.89 29.54 26.25 26.93 curveto
26.77 25.92 27.93 25.49 29.09 25.51 curveto
30.60 25.54 31.99 26.25 33.34 26.93 curveto
38.05 29.31 42.89 31.46 47.51 34.02 curveto
51.41 36.17 55.15 38.61 58.85 41.10 curveto
63.63 44.33 68.34 47.66 73.02 51.02 curveto
76.32 53.39 79.62 55.78 82.94 58.11 curveto
84.04 58.88 85.42 59.09 85.78 58.11 curveto
86.02 57.47 85.48 56.87 84.93 56.41 curveto
83.90 55.54 82.87 54.68 81.81 53.86 curveto
79.88 52.37 77.84 51.03 75.86 49.61 curveto
70.40 45.68 65.44 41.13 60.27 36.85 curveto
44.51 23.81 26.81 13.29 7.83 5.67 curveto
gsave grestore 0.85 setlinewidth [] 0 setdash 0 0 0 setrgbcolor stroke 
newpath 71.61 24.09 moveto 62.61 34.89 53.15 45.30 43.26 55.28 curveto
29.49 69.16 14.43 83.98 14.91 103.46 curveto
15.21 115.26 21.63 126.05 31.92 131.81 curveto
43.65 138.38 58.18 137.26 68.77 128.98 curveto
gsave grestore 0.85 setlinewidth [] 0 setdash 0 0 0 setrgbcolor stroke 
showpage
%%EOF
