%!PS-Adobe-3.0 EPSF-3.0
%%BoundingBox: 0 0 173 115
%%HiResBoundingBox: 0 0 172.91 114.80
%%Title: 
%%Creator: TpX drawing tool
%%CreationDate: 3/18/2018 1:58:26 PM
%%EndComments
newpath 39.69 5.67 moveto 39.69 96.38 lineto gsave grestore 0.85 setlinewidth [] 0 setdash 0 0 0 setrgbcolor stroke 
newpath 39.69 96.38 moveto 37.70 88.44 lineto 39.69 96.38 lineto 41.67 88.44 lineto 39.69 96.38 lineto closepath gsave 0 0 0 setrgbcolor fill grestore 0.85 setlinewidth [] 0 setdash 0 0 0 setrgbcolor stroke 
newpath 11.34 42.52 moveto 167.24 42.52 lineto gsave grestore 0.85 setlinewidth [] 0 setdash 0 0 0 setrgbcolor stroke 
newpath 167.24 42.52 moveto 159.31 44.50 lineto 167.24 42.52 lineto 159.31 40.54 lineto 167.24 42.52 lineto closepath gsave 0 0 0 setrgbcolor fill grestore 0.85 setlinewidth [] 0 setdash 0 0 0 setrgbcolor stroke 
newpath 68.03 62.36 2.83 0 360 arc 
closepath gsave 0 0 0 setrgbcolor fill grestore 0.85 setlinewidth [] 0 setdash 0 0 0 setrgbcolor stroke 
newpath 56.69 76.54 moveto 59.77 71.29 63.59 66.51 68.03 62.36 curveto
73.04 57.68 78.79 53.85 85.04 51.02 curveto
gsave grestore 0.85 setlinewidth [] 0 setdash 0 0 0 setrgbcolor stroke 
newpath 48.19 51.02 moveto 54.87 54.68 61.49 58.46 68.03 62.36 curveto
75.69 66.93 83.25 71.65 90.71 76.54 curveto
gsave grestore 0.85 setlinewidth [] 0 setdash 0 0 0 setrgbcolor stroke 
newpath 82.20 70.87 moveto 90.71 76.54 lineto gsave grestore 0.85 setlinewidth [] 0 setdash 0 0 0 setrgbcolor stroke 
newpath 90.71 76.54 moveto 83.00 73.78 lineto 90.71 76.54 lineto 85.21 70.48 lineto 90.71 76.54 lineto closepath gsave 0 0 0 setrgbcolor fill grestore 0.85 setlinewidth [] 0 setdash 0 0 0 setrgbcolor stroke 
newpath 53.86 53.86 moveto 48.19 51.02 lineto gsave grestore 0.85 setlinewidth [] 0 setdash 0 0 0 setrgbcolor stroke 
newpath 48.19 51.02 moveto 56.18 52.80 lineto 48.19 51.02 lineto 54.40 56.35 lineto 48.19 51.02 lineto closepath gsave 0 0 0 setrgbcolor fill grestore 0.85 setlinewidth [] 0 setdash 0 0 0 setrgbcolor stroke 
newpath 60.88 70.51 moveto 63.40 67.39 lineto gsave grestore 0.85 setlinewidth [] 0 setdash 0 0 0 setrgbcolor stroke 
newpath 63.40 67.39 moveto 59.95 74.81 lineto 63.40 67.39 lineto 56.86 72.31 lineto 63.40 67.39 lineto closepath gsave 0 0 0 setrgbcolor fill grestore 0.85 setlinewidth [] 0 setdash 0 0 0 setrgbcolor stroke 
newpath 78.21 54.52 moveto 75.01 56.94 lineto gsave grestore 0.85 setlinewidth [] 0 setdash 0 0 0 setrgbcolor stroke 
newpath 75.01 56.94 moveto 80.16 50.57 lineto 75.01 56.94 lineto 82.55 53.74 lineto 75.01 56.94 lineto closepath gsave 0 0 0 setrgbcolor fill grestore 0.85 setlinewidth [] 0 setdash 0 0 0 setrgbcolor stroke 
newpath 68.03 62.36 moveto 75.02 67.94 82.63 72.70 90.71 76.54 curveto
92.62 77.44 94.55 78.30 96.38 79.37 curveto
101.67 82.48 105.84 87.66 104.88 93.54 curveto
103.68 100.90 95.76 104.37 87.87 104.88 curveto
78.36 105.50 68.98 103.16 59.53 102.05 curveto
51.05 101.05 42.49 101.05 34.02 102.05 curveto
gsave grestore 0.85 setlinewidth [] 0 setdash 0 0 0 setrgbcolor stroke 
newpath 68.03 62.36 moveto 66.11 61.47 64.22 60.53 62.36 59.53 curveto
57.51 56.92 52.86 53.96 48.19 51.02 curveto
34.19 42.23 20.02 33.72 5.67 25.51 curveto
gsave grestore 0.85 setlinewidth [] 0 setdash 0 0 0 setrgbcolor stroke 
newpath 65.20 65.20 moveto 63.72 67.04 62.30 68.93 60.94 70.87 curveto
59.58 72.80 58.28 74.78 56.69 76.54 curveto
53.29 80.31 48.59 83.09 46.77 87.87 curveto
46.08 89.70 45.89 91.67 45.35 93.54 curveto
44.17 97.71 41.40 101.88 43.31 105.83 curveto
44.22 107.73 46.09 108.99 48.19 109.13 curveto
gsave grestore 0.85 setlinewidth [] 0 setdash 0 0 0 setrgbcolor stroke 
newpath 68.03 62.36 moveto 68.49 61.88 68.96 61.40 69.45 60.94 curveto
73.18 57.41 77.61 54.73 82.20 52.44 curveto
85.43 50.84 88.74 49.42 92.13 48.19 curveto
97.20 46.34 102.41 44.92 107.72 43.94 curveto
gsave grestore 0.85 setlinewidth [] 0 setdash 0 0 0 setrgbcolor stroke 
showpage
%%EOF
