%!PS-Adobe-3.0 EPSF-3.0
%%BoundingBox: 0 0 168 103
%%HiResBoundingBox: 0 0 167.24 102.05
%%Title: 
%%Creator: TpX drawing tool
%%CreationDate: 3/18/2018 1:54:46 PM
%%EndComments
newpath 34.02 5.67 moveto 34.02 96.38 lineto gsave grestore 0.85 setlinewidth [] 0 setdash 0 0 0 setrgbcolor stroke 
newpath 34.02 96.38 moveto 32.03 88.44 lineto 34.02 96.38 lineto 36.00 88.44 lineto 34.02 96.38 lineto closepath gsave 0 0 0 setrgbcolor fill grestore 0.85 setlinewidth [] 0 setdash 0 0 0 setrgbcolor stroke 
newpath 5.67 42.52 moveto 161.57 42.52 lineto gsave grestore 0.85 setlinewidth [] 0 setdash 0 0 0 setrgbcolor stroke 
newpath 161.57 42.52 moveto 153.64 44.50 lineto 161.57 42.52 lineto 153.64 40.54 lineto 161.57 42.52 lineto closepath gsave 0 0 0 setrgbcolor fill grestore 0.85 setlinewidth [] 0 setdash 0 0 0 setrgbcolor stroke 
newpath 62.36 62.36 2.83 0 360 arc 
closepath gsave 0 0 0 setrgbcolor fill grestore 0.85 setlinewidth [] 0 setdash 0 0 0 setrgbcolor stroke 
newpath 51.02 76.54 moveto 54.10 71.29 57.92 66.51 62.36 62.36 curveto
67.38 57.68 73.12 53.85 79.37 51.02 curveto
gsave grestore 0.85 setlinewidth [] 0 setdash 0 0 0 setrgbcolor stroke 
newpath 42.52 51.02 moveto 49.20 54.68 55.82 58.46 62.36 62.36 curveto
70.02 66.93 77.58 71.65 85.04 76.54 curveto
gsave grestore 0.85 setlinewidth [] 0 setdash 0 0 0 setrgbcolor stroke 
newpath 76.54 70.87 moveto 85.04 76.54 lineto gsave grestore 0.85 setlinewidth [] 0 setdash 0 0 0 setrgbcolor stroke 
newpath 85.04 76.54 moveto 77.33 73.78 lineto 85.04 76.54 lineto 79.54 70.48 lineto 85.04 76.54 lineto closepath gsave 0 0 0 setrgbcolor fill grestore 0.85 setlinewidth [] 0 setdash 0 0 0 setrgbcolor stroke 
newpath 48.19 53.86 moveto 42.52 51.02 lineto gsave grestore 0.85 setlinewidth [] 0 setdash 0 0 0 setrgbcolor stroke 
newpath 42.52 51.02 moveto 50.51 52.80 lineto 42.52 51.02 lineto 48.73 56.35 lineto 42.52 51.02 lineto closepath gsave 0 0 0 setrgbcolor fill grestore 0.85 setlinewidth [] 0 setdash 0 0 0 setrgbcolor stroke 
newpath 55.21 70.51 moveto 57.73 67.39 lineto gsave grestore 0.85 setlinewidth [] 0 setdash 0 0 0 setrgbcolor stroke 
newpath 57.73 67.39 moveto 54.28 74.81 lineto 57.73 67.39 lineto 51.19 72.31 lineto 57.73 67.39 lineto closepath gsave 0 0 0 setrgbcolor fill grestore 0.85 setlinewidth [] 0 setdash 0 0 0 setrgbcolor stroke 
newpath 72.54 54.52 moveto 69.34 56.94 lineto gsave grestore 0.85 setlinewidth [] 0 setdash 0 0 0 setrgbcolor stroke 
newpath 69.34 56.94 moveto 74.49 50.57 lineto 69.34 56.94 lineto 76.88 53.74 lineto 69.34 56.94 lineto closepath gsave 0 0 0 setrgbcolor fill grestore 0.85 setlinewidth [] 0 setdash 0 0 0 setrgbcolor stroke 
showpage
%%EOF
