%!PS-Adobe-3.0 EPSF-3.0
%%BoundingBox: 0 0 168 88
%%HiResBoundingBox: 0 0 167.24 87.87
%%Title: 
%%Creator: TpX drawing tool
%%CreationDate: 3/18/2018 2:37:47 PM
%%EndComments
newpath 14.17 5.67 moveto 14.17 82.20 lineto gsave grestore 0.85 setlinewidth [] 0 setdash 0 0 0 setrgbcolor stroke 
newpath 14.17 82.20 moveto 12.19 74.27 lineto 14.17 82.20 lineto 16.16 74.27 lineto 14.17 82.20 lineto closepath gsave 0 0 0 setrgbcolor fill grestore 0.85 setlinewidth [] 0 setdash 0 0 0 setrgbcolor stroke 
newpath 5.67 11.34 moveto 161.57 11.34 lineto gsave grestore 0.85 setlinewidth [] 0 setdash 0 0 0 setrgbcolor stroke 
newpath 161.57 11.34 moveto 153.64 13.32 lineto 161.57 11.34 lineto 153.64 9.35 lineto 161.57 11.34 lineto closepath gsave 0 0 0 setrgbcolor fill grestore 0.85 setlinewidth [] 0 setdash 0 0 0 setrgbcolor stroke 
newpath 42.52 39.69 2.83 0 360 arc 
closepath gsave 0 0 0 setrgbcolor fill grestore 0.85 setlinewidth [] 0 setdash 0 0 0 setrgbcolor stroke 
showpage
%%EOF
