%!PS-Adobe-3.0 EPSF-3.0
%%BoundingBox: 0 0 181 142
%%HiResBoundingBox: 0 0 180.90 141.51
%%Title: 
%%Creator: TpX drawing tool
%%CreationDate: 3/19/2018 2:46:47 PM
%%EndComments
newpath 90.00 8.50 moveto 81.01 19.30 71.55 29.71 61.66 39.69 curveto
47.88 53.57 32.82 68.39 33.31 87.87 curveto
33.60 99.67 40.03 110.46 50.32 116.22 curveto
62.05 122.79 76.58 121.67 87.17 113.39 curveto
gsave grestore 0.85 setlinewidth [] 0 setdash 0 0 0 setrgbcolor stroke 
newpath 47.48 5.67 moveto 63.34 12.31 77.77 21.93 90.00 34.02 curveto
99.82 43.72 108.15 54.98 112.68 68.03 curveto
119.87 88.74 114.72 112.39 95.67 119.06 curveto
87.28 121.99 78.19 120.08 70.16 116.22 curveto
65.54 114.00 60.60 111.26 55.99 113.39 curveto
50.18 116.06 46.21 126.17 40.25 121.62 curveto
36.08 118.44 39.98 112.84 41.81 107.72 curveto
42.80 104.97 42.80 101.96 41.81 99.21 curveto
gsave grestore 0.85 setlinewidth [] 0 setdash 0 0 0 setrgbcolor stroke 
newpath 92.84 36.85 moveto 95.67 39.69 lineto gsave grestore 0.85 setlinewidth [] 0 setdash 0 0 0 setrgbcolor stroke 
newpath 95.67 39.69 moveto 88.66 35.48 lineto 95.67 39.69 lineto 91.46 32.67 lineto 95.67 39.69 lineto closepath gsave 0 0 0 setrgbcolor fill grestore 0.85 setlinewidth [] 0 setdash 0 0 0 setrgbcolor stroke 
newpath 65.88 35.48 moveto 68.62 32.55 lineto gsave grestore 0.85 setlinewidth [] 0 setdash 0 0 0 setrgbcolor stroke 
newpath 68.62 32.55 moveto 64.66 39.71 lineto 68.62 32.55 lineto 61.75 37.00 lineto 68.62 32.55 lineto closepath gsave 0 0 0 setrgbcolor fill grestore 0.85 setlinewidth [] 0 setdash 0 0 0 setrgbcolor stroke 
newpath 76.40 119.06 2.83 0 360 arc 
closepath gsave 0 0 0 setrgbcolor fill grestore 0.85 setlinewidth [] 0 setdash 0 0 0 setrgbcolor stroke 
newpath 42.08 108.46 2.83 0 360 arc 
closepath gsave 0 0 0 setrgbcolor fill grestore 0.85 setlinewidth [] 0 setdash 0 0 0 setrgbcolor stroke 
showpage
%%EOF
