%!PS-Adobe-3.0 EPSF-3.0
%%BoundingBox: 0 0 200 154
%%HiResBoundingBox: 0 0 199.22 153.04
%%Title: 
%%Creator: TpX drawing tool
%%CreationDate: 3/19/2018 2:44:42 PM
%%EndComments
newpath 34.02 20.03 moveto 31.81 30.32 44.30 35.07 51.02 42.71 curveto
58.36 51.05 57.85 62.98 59.53 73.89 curveto
61.53 86.92 67.54 99.58 79.37 105.07 curveto
91.71 110.81 105.60 106.32 119.06 105.07 curveto
136.21 103.49 156.27 103.81 161.57 88.07 curveto
165.82 75.45 154.85 64.00 153.07 51.22 curveto
151.60 40.66 156.37 29.04 150.24 20.03 curveto
142.00 7.94 125.04 12.49 110.55 11.53 curveto
98.06 10.70 86.20 4.51 73.70 5.86 curveto
68.90 6.38 64.30 8.01 59.53 8.70 curveto
48.93 10.21 36.16 10.01 34.02 20.03 curveto
closepath gsave grestore 0.85 setlinewidth [] 0 setdash 0 0 0 setrgbcolor stroke 
newpath 70.87 54.05 moveto 22.68 127.75 lineto gsave grestore 0.85 setlinewidth [] 0 setdash 0 0 0 setrgbcolor stroke 
newpath 22.68 127.75 moveto 25.36 120.02 lineto 22.68 127.75 lineto 28.68 122.19 lineto 22.68 127.75 lineto closepath gsave 0 0 0 setrgbcolor fill grestore 0.85 setlinewidth [] 0 setdash 0 0 0 setrgbcolor stroke 
newpath 70.87 54.05 moveto 70.87 144.76 lineto gsave grestore 0.85 setlinewidth [] 0 setdash 0 0 0 setrgbcolor stroke 
newpath 70.87 144.76 moveto 68.88 136.82 lineto 70.87 144.76 lineto 72.85 136.82 lineto 70.87 144.76 lineto closepath gsave 0 0 0 setrgbcolor fill grestore 0.85 setlinewidth [] 0 setdash 0 0 0 setrgbcolor stroke 
newpath 70.87 54.05 moveto 144.57 116.41 lineto gsave grestore 0.85 setlinewidth [] 0 setdash 0 0 0 setrgbcolor stroke 
newpath 144.57 116.41 moveto 137.23 112.80 lineto 144.57 116.41 lineto 139.79 109.77 lineto 144.57 116.41 lineto closepath gsave 0 0 0 setrgbcolor fill grestore 0.85 setlinewidth [] 0 setdash 0 0 0 setrgbcolor stroke 
newpath 70.87 54.05 moveto 175.75 56.88 lineto gsave grestore 0.85 setlinewidth [] 0 setdash 0 0 0 setrgbcolor stroke 
newpath 175.75 56.88 moveto 167.76 58.65 lineto 175.75 56.88 lineto 167.87 54.69 lineto 175.75 56.88 lineto closepath gsave 0 0 0 setrgbcolor fill grestore 0.85 setlinewidth [] 0 setdash 0 0 0 setrgbcolor stroke 
newpath 70.87 54.05 moveto 76.54 45.55 lineto 65.20 45.55 lineto closepath gsave grestore 1.70 setlinewidth [] 0 setdash 0 0 0 setrgbcolor stroke 
newpath 87.87 88.07 2.83 0 360 arc 
closepath gsave 0 0 0 setrgbcolor fill grestore 0.85 setlinewidth [] 0 setdash 0 0 0 setrgbcolor stroke 
showpage
%%EOF
