%!PS-Adobe-3.0 EPSF-3.0
%%BoundingBox: 0 0 136 120
%%HiResBoundingBox: 0 0 135.19 119.12
%%Title: 
%%Creator: TpX drawing tool
%%CreationDate: 3/17/2018 3:36:01 PM
%%EndComments
newpath 16.63 88.54 moveto 21.87 97.73 32.19 101.95 42.14 105.55 curveto
71.47 116.15 105.65 119.31 118.68 94.21 curveto
180.59 -25.06 -45.66 -20.73 16.63 88.54 curveto
closepath gsave grestore 0.85 setlinewidth [] 0 setdash 0 0 0 setrgbcolor stroke 
newpath 22.30 71.53 moveto 35.07 71.48 47.29 66.38 56.32 57.36 curveto
65.34 48.33 70.44 36.11 70.49 23.34 curveto
gsave grestore 0.85 setlinewidth [] 0 setdash 0 0 0 setrgbcolor stroke 
newpath 44.98 97.04 moveto 61.02 102.21 78.61 97.81 90.33 85.70 curveto
100.51 75.20 104.76 60.31 101.67 46.02 curveto
gsave grestore 0.85 setlinewidth [] 0 setdash 0 0 0 setrgbcolor stroke 
newpath 22.30 71.53 moveto 21.88 79.11 25.03 86.45 30.81 91.37 curveto
34.78 94.76 39.76 96.75 44.98 97.04 curveto
gsave grestore 0.85 setlinewidth [] 0 setdash 0 0 0 setrgbcolor stroke 
newpath 70.49 23.34 moveto 71.98 28.75 74.92 33.66 78.99 37.51 curveto
85.10 43.29 93.27 46.36 101.67 46.02 curveto
gsave grestore 0.85 setlinewidth [] 0 setdash 0 0 0 setrgbcolor stroke 
newpath 67.66 71.53 2.83 0 360 arc 
closepath gsave 0 0 0 setrgbcolor fill grestore 0.85 setlinewidth [] 0 setdash 0 0 0 setrgbcolor stroke 
newpath 73.32 43.18 2.83 0 360 arc 
closepath gsave 0 0 0 setrgbcolor fill grestore 0.85 setlinewidth [] 0 setdash 0 0 0 setrgbcolor stroke 
newpath 67.66 71.53 moveto 71.76 83.30 83.69 90.46 96.00 88.54 curveto
98.97 88.08 101.82 87.06 104.51 85.70 curveto
112.62 81.60 118.98 74.58 121.51 65.86 curveto
125.57 51.93 119.46 37.17 107.34 29.01 curveto
95.75 21.21 81.12 21.08 67.66 17.67 curveto
59.13 15.52 49.40 13.50 44.98 20.51 curveto
42.84 23.90 43.28 28.17 44.98 31.85 curveto
48.95 40.47 58.37 45.18 67.66 43.18 curveto
gsave grestore 0.85 setlinewidth [] 0 setdash 0 0 0 setrgbcolor stroke 
newpath 84.66 87.69 moveto 89.20 88.54 lineto gsave grestore 0.85 setlinewidth [] 0 setdash 0 0 0 setrgbcolor stroke 
newpath 89.20 88.54 moveto 81.03 89.03 lineto 89.20 88.54 lineto 81.76 85.13 lineto 89.20 88.54 lineto closepath gsave 0 0 0 setrgbcolor fill grestore 0.85 setlinewidth [] 0 setdash 0 0 0 setrgbcolor stroke 
showpage
%%EOF
