%!PS-Adobe-3.0 EPSF-3.0
%%BoundingBox: 0 0 399 224
%%HiResBoundingBox: 0 0 398.43 223.94
%%Title: 
%%Creator: TpX drawing tool
%%CreationDate: 3/18/2018 10:28:55 PM
%%EndComments
newpath 133.23 5.67 moveto 133.23 218.27 lineto gsave grestore 0.85 setlinewidth [] 0 setdash 0 0 0 setrgbcolor stroke 
newpath 5.67 90.71 moveto 360.00 90.71 lineto gsave grestore 0.85 setlinewidth [] 0 setdash 0 0 0 setrgbcolor stroke 
newpath 19.84 104.88 2.83 0 360 arc 
closepath gsave 0 0 0 setrgbcolor fill grestore 0.85 setlinewidth [] 0 setdash 0 0 0 setrgbcolor stroke 
newpath 246.61 104.88 2.83 0 360 arc 
closepath gsave 0 0 0 setrgbcolor fill grestore 0.85 setlinewidth [] 0 setdash 0 0 0 setrgbcolor stroke 
newpath 14.17 96.38 moveto 16.01 99.25 17.90 102.08 19.84 104.88 curveto
31.41 121.52 45.02 136.90 62.36 147.40 curveto
71.00 152.63 80.62 156.56 90.71 155.91 curveto
98.35 155.41 105.75 152.21 113.39 153.07 curveto
120.56 153.88 126.89 158.10 130.39 164.41 curveto
gsave grestore 0.85 setlinewidth [] 0 setdash 0 0 0 setrgbcolor stroke 
newpath 255.12 99.21 moveto 252.31 101.14 249.47 103.03 246.61 104.88 curveto
235.60 112.04 224.26 118.67 212.60 124.72 curveto
200.59 130.96 188.26 136.57 175.75 141.73 curveto
147.26 153.50 117.87 162.98 87.87 170.08 curveto
gsave grestore 0.85 setlinewidth [] 0 setdash 0 0 0 setrgbcolor stroke 
newpath 171.96 143.10 moveto 176.92 141.17 lineto gsave grestore 0.85 setlinewidth [] 0 setdash 0 0 0 setrgbcolor stroke 
newpath 176.92 141.17 moveto 170.24 145.90 lineto 176.92 141.17 lineto 168.80 142.20 lineto 176.92 141.17 lineto closepath gsave 0 0 0 setrgbcolor fill grestore 0.85 setlinewidth [] 0 setdash 0 0 0 setrgbcolor stroke 
showpage
%%EOF
