%!PS-Adobe-3.0 EPSF-3.0
%%BoundingBox: 0 0 230 229
%%HiResBoundingBox: 0 0 229.50 228.60
%%Title: 
%%Creator: TpX drawing tool
%%CreationDate: 3/19/2018 10:48:55 AM
%%EndComments
newpath 72.61 173.80 moveto 67.31 183.75 60.26 192.25 52.99 197.42 curveto
45.73 202.59 38.85 204.01 33.87 201.36 curveto
28.90 198.71 26.22 192.22 26.45 183.31 curveto
26.67 174.39 29.77 163.79 35.06 153.84 curveto
40.36 143.88 47.41 135.38 54.68 130.21 curveto
61.94 125.04 68.82 123.63 73.80 126.27 curveto
78.78 128.92 81.45 135.42 81.22 144.33 curveto
81.00 153.24 77.90 163.84 72.61 173.80 curveto
closepath gsave grestore 0.85 setlinewidth [] 0 setdash 0 0 0 setrgbcolor stroke 
newpath 32.86 200.43 moveto 52.79 213.02 75.47 220.58 98.97 222.47 curveto
131.52 225.09 164.44 216.62 188.78 194.92 curveto
224.62 162.98 234.15 110.75 211.92 68.20 curveto
gsave grestore 0.85 setlinewidth [] 0 setdash 0 0 0 setrgbcolor stroke 
newpath 72.53 124.40 moveto 86.02 141.46 107.93 149.54 129.27 145.34 curveto
146.49 141.94 161.30 130.71 167.84 114.48 curveto
172.33 103.35 172.33 90.91 167.84 79.77 curveto
gsave grestore 0.85 setlinewidth [] 0 setdash 0 0 0 setrgbcolor stroke 
newpath 51.59 162.97 moveto 69.68 174.31 90.33 180.94 111.64 182.25 curveto
132.53 183.54 153.86 179.50 170.05 166.27 curveto
197.89 143.52 202.24 103.61 187.68 69.85 curveto
166.26 20.23 111.78 -6.96 62.06 11.45 curveto
22.34 26.16 -1.32 67.23 7.51 108.42 curveto
12.69 132.58 29.06 152.83 51.59 162.97 curveto
gsave grestore 0.85 setlinewidth [] 0 setdash 0 0 0 setrgbcolor stroke 
newpath 62.64 165.25 moveto 60.40 169.47 57.40 173.08 54.32 175.27 curveto
51.24 177.46 48.32 178.06 46.21 176.94 curveto
44.10 175.82 42.97 173.06 43.06 169.28 curveto
43.16 165.50 44.47 161.01 46.72 156.79 curveto
48.96 152.56 51.96 148.96 55.04 146.77 curveto
58.12 144.57 61.03 143.97 63.15 145.10 curveto
65.26 146.22 66.39 148.97 66.29 152.75 curveto
66.20 156.53 64.89 161.03 62.64 165.25 curveto
closepath gsave grestore 0.85 setlinewidth [] 0 setdash 0 0 0 setrgbcolor stroke 
newpath 62.61 144.30 moveto 82.50 160.47 108.48 167.09 133.68 162.42 curveto
146.38 160.06 158.49 154.80 167.84 145.89 curveto
182.10 132.29 188.17 112.21 183.82 92.99 curveto
gsave grestore 0.85 setlinewidth [] 0 setdash 0 0 0 setrgbcolor stroke 
newpath 45.78 176.55 moveto 61.73 191.13 81.90 200.27 103.38 202.64 curveto
138.91 206.55 174.22 191.86 194.29 162.42 curveto
208.24 141.94 212.85 116.51 206.96 92.44 curveto
gsave grestore 0.85 setlinewidth [] 0 setdash 0 0 0 setrgbcolor stroke 
showpage
%%EOF
