%!PS-Adobe-3.0 EPSF-3.0
%%BoundingBox: 0 0 263 179
%%HiResBoundingBox: 0 0 262.29 178.83
%%Title: 
%%Creator: TpX drawing tool
%%CreationDate: 3/19/2018 11:03:10 AM
%%EndComments
newpath 15.59 97.02 moveto 15.59 100.09 15.06 103.04 14.13 105.21 curveto
13.20 107.38 11.94 108.59 10.63 108.59 curveto
9.31 108.59 8.05 107.38 7.12 105.21 curveto
6.19 103.04 5.67 100.09 5.67 97.02 curveto
5.67 93.96 6.19 91.01 7.12 88.84 curveto
8.05 86.67 9.31 85.45 10.63 85.45 curveto
11.94 85.45 13.20 86.67 14.13 88.84 curveto
15.06 91.01 15.59 93.96 15.59 97.02 curveto
closepath gsave grestore 0.85 setlinewidth [] 0 setdash 0 0 0 setrgbcolor stroke 
newpath 51.95 100.61 moveto 51.95 110.18 51.11 119.36 49.61 126.12 curveto
48.11 132.89 46.08 136.69 43.96 136.69 curveto
41.84 136.69 39.81 132.89 38.31 126.12 curveto
36.81 119.36 35.97 110.18 35.97 100.61 curveto
35.97 91.03 36.81 81.86 38.31 75.09 curveto
39.81 68.32 41.84 64.52 43.96 64.52 curveto
46.08 64.52 48.11 68.32 49.61 75.09 curveto
51.11 81.86 51.95 91.03 51.95 100.61 curveto
closepath gsave grestore 0.85 setlinewidth [] 0 setdash 0 0 0 setrgbcolor stroke 
newpath 113.66 103.91 moveto 113.66 121.52 111.97 138.41 108.98 150.86 curveto
105.98 163.31 101.92 170.30 97.68 170.30 curveto
93.44 170.30 89.38 163.31 86.38 150.86 curveto
83.39 138.41 81.70 121.52 81.70 103.91 curveto
81.70 86.30 83.39 69.42 86.38 56.97 curveto
89.38 44.52 93.44 37.52 97.68 37.52 curveto
101.92 37.52 105.98 44.52 108.98 56.97 curveto
111.97 69.42 113.66 86.30 113.66 103.91 curveto
closepath gsave grestore 0.85 setlinewidth [] 0 setdash 0 0 0 setrgbcolor stroke 
newpath 10.79 108.91 moveto 16.41 110.59 22.14 111.89 27.93 112.81 curveto
33.35 113.66 38.81 114.18 44.30 114.36 curveto
gsave grestore 0.85 setlinewidth [] 0 setdash 0 0 0 setrgbcolor stroke 
newpath 10.79 85.15 moveto 17.70 85.69 24.58 86.47 31.44 87.48 curveto
36.00 88.16 40.55 88.94 45.07 89.82 curveto
gsave grestore 0.85 setlinewidth [] 0 setdash 0 0 0 setrgbcolor stroke 
newpath 44.30 136.18 moveto 54.18 139.22 64.37 141.18 74.68 142.03 curveto
82.46 142.66 90.28 142.66 98.06 142.03 curveto
gsave grestore 0.85 setlinewidth [] 0 setdash 0 0 0 setrgbcolor stroke 
newpath 43.13 64.50 moveto 53.13 66.84 63.29 68.54 73.51 69.56 curveto
82.19 70.43 90.90 70.82 99.62 70.73 curveto
gsave grestore 0.85 setlinewidth [] 0 setdash 0 0 0 setrgbcolor stroke 
newpath 96.11 170.46 moveto 125.41 175.00 155.31 173.81 184.16 166.96 curveto
209.93 160.84 234.45 150.29 256.62 135.79 curveto
gsave grestore 0.85 setlinewidth [] 0 setdash 0 0 0 setrgbcolor stroke 
newpath 96.89 37.23 moveto 125.46 40.03 154.29 38.06 182.21 31.38 curveto
205.23 25.88 227.39 17.22 248.05 5.67 curveto
gsave grestore 0.85 setlinewidth [] 0 setdash 0 0 0 setrgbcolor stroke 
newpath 39.23 114.36 moveto 61.23 116.68 83.38 117.20 105.46 115.92 curveto
151.42 113.26 196.60 102.85 239.09 85.15 curveto
gsave grestore 0.85 setlinewidth [5.67 2.83] 0 setdash 0 0 0 setrgbcolor stroke 
newpath 42.35 89.04 moveto 59.78 91.32 77.36 92.36 94.94 92.16 curveto
141.69 91.63 187.94 82.38 231.30 64.89 curveto
gsave grestore 0.85 setlinewidth [5.67 2.83] 0 setdash 0 0 0 setrgbcolor stroke 
newpath 94.94 141.64 moveto 115.06 140.72 135.10 138.51 154.94 135.01 curveto
184.61 129.78 213.70 121.69 241.82 110.86 curveto
gsave grestore 0.85 setlinewidth [5.67 2.83] 0 setdash 0 0 0 setrgbcolor stroke 
newpath 97.67 70.73 moveto 110.56 70.70 123.44 69.92 136.24 68.39 curveto
167.20 64.71 197.49 56.71 226.23 44.63 curveto
gsave grestore 0.85 setlinewidth [5.67 2.83] 0 setdash 0 0 0 setrgbcolor stroke 
showpage
%%EOF
