%!PS-Adobe-3.0 EPSF-3.0
%%BoundingBox: 0 0 373 241
%%HiResBoundingBox: 0 0 372.76 240.15
%%Title: 
%%Creator: TpX drawing tool
%%CreationDate: 3/19/2018 10:16:47 AM
%%EndComments
newpath 34.02 5.67 moveto 34.02 232.44 lineto gsave grestore 0.85 setlinewidth [] 0 setdash 0 0 0 setrgbcolor stroke 
newpath 34.02 232.44 moveto 32.03 224.50 lineto 34.02 232.44 lineto 36.00 224.50 lineto 34.02 232.44 lineto closepath gsave 0 0 0 setrgbcolor fill grestore 0.85 setlinewidth [] 0 setdash 0 0 0 setrgbcolor stroke 
newpath 5.67 48.19 moveto 331.65 48.19 lineto gsave grestore 0.85 setlinewidth [] 0 setdash 0 0 0 setrgbcolor stroke 
newpath 331.65 48.19 moveto 323.72 50.17 lineto 331.65 48.19 lineto 323.72 46.20 lineto 331.65 48.19 lineto closepath gsave 0 0 0 setrgbcolor fill grestore 0.85 setlinewidth [] 0 setdash 0 0 0 setrgbcolor stroke 
newpath 34.02 119.06 moveto 34.02 48.19 lineto 147.40 48.19 lineto 147.40 119.06 lineto closepath gsave grestore 0.85 setlinewidth [] 0 setdash 0 0 0 setrgbcolor stroke 
newpath 58.93 81.76 moveto 68.78 91.75 lineto gsave grestore 0.43 setlinewidth [] 0 setdash 0 0 0 setrgbcolor stroke 
newpath 68.78 91.75 moveto 61.80 87.50 lineto 68.78 91.75 lineto 64.62 84.71 lineto 68.78 91.75 lineto closepath gsave 0 0 0 setrgbcolor fill grestore 0.43 setlinewidth [] 0 setdash 0 0 0 setrgbcolor stroke 
newpath 34.02 56.69 moveto 96.38 119.06 lineto gsave grestore 0.85 setlinewidth [] 0 setdash 0 0 0 setrgbcolor stroke 
newpath 34.02 85.04 moveto 68.03 119.06 lineto gsave grestore 0.85 setlinewidth [] 0 setdash 0 0 0 setrgbcolor stroke 
newpath 56.69 48.19 moveto 124.72 119.06 lineto gsave grestore 0.85 setlinewidth [] 0 setdash 0 0 0 setrgbcolor stroke 
newpath 85.04 48.19 moveto 147.40 110.55 lineto gsave grestore 0.85 setlinewidth [] 0 setdash 0 0 0 setrgbcolor stroke 
newpath 113.39 48.19 moveto 147.40 82.20 lineto gsave grestore 0.85 setlinewidth [] 0 setdash 0 0 0 setrgbcolor stroke 
showpage
%%EOF
