%!PS-Adobe-3.0 EPSF-3.0
%%BoundingBox: 0 0 240 125
%%HiResBoundingBox: 0 0 239.83 124.95
%%Title: 
%%Creator: TpX drawing tool
%%CreationDate: 3/17/2018 2:42:33 PM
%%EndComments
newpath 8.50 17.23 moveto 29.13 52.37 58.40 81.65 93.54 102.27 curveto
102.66 107.63 112.13 112.36 121.89 116.45 curveto
gsave grestore 0.85 setlinewidth [] 0 setdash 0 0 0 setrgbcolor stroke 
newpath 57.26 76.20 moveto 68.60 84.70 lineto gsave grestore 0.85 setlinewidth [] 0 setdash 0 0 0 setrgbcolor stroke 
newpath 68.60 84.70 moveto 61.06 81.52 lineto 68.60 84.70 lineto 63.44 78.35 lineto 68.60 84.70 lineto closepath gsave 0 0 0 setrgbcolor fill grestore 0.85 setlinewidth [] 0 setdash 0 0 0 setrgbcolor stroke 
newpath 8.50 17.23 2.83 0 360 arc 
closepath gsave 0 0 0 setrgbcolor fill grestore 0.85 setlinewidth [] 0 setdash 0 0 0 setrgbcolor stroke 
newpath 121.89 116.45 2.83 0 360 arc 
closepath gsave 0 0 0 setrgbcolor fill grestore 0.85 setlinewidth [] 0 setdash 0 0 0 setrgbcolor stroke 
showpage
%%EOF
