%!PS-Adobe-3.0 EPSF-3.0
%%BoundingBox: 0 0 131 88
%%HiResBoundingBox: 0 0 130.39 87.87
%%Title: 
%%Creator: TpX drawing tool
%%CreationDate: 3/18/2018 1:50:46 PM
%%EndComments
newpath 48.19 5.67 moveto 48.19 82.20 lineto gsave grestore 0.85 setlinewidth [] 0 setdash 0 0 0 setrgbcolor stroke 
newpath 48.19 82.20 moveto 46.20 74.27 lineto 48.19 82.20 lineto 50.17 74.27 lineto 48.19 82.20 lineto closepath gsave 0 0 0 setrgbcolor fill grestore 0.85 setlinewidth [] 0 setdash 0 0 0 setrgbcolor stroke 
newpath 5.67 31.18 moveto 124.72 31.18 lineto gsave grestore 0.85 setlinewidth [] 0 setdash 0 0 0 setrgbcolor stroke 
newpath 124.72 31.18 moveto 116.79 33.17 lineto 124.72 31.18 lineto 116.79 29.20 lineto 124.72 31.18 lineto closepath gsave 0 0 0 setrgbcolor fill grestore 0.85 setlinewidth [] 0 setdash 0 0 0 setrgbcolor stroke 
newpath 48.19 31.18 22.68 0 360 arc 
closepath gsave grestore 0.85 setlinewidth [] 0 setdash 0 0 0 setrgbcolor stroke 
newpath 56.69 31.18 2.83 0 360 arc 
closepath gsave 0 0 0 setrgbcolor fill grestore 0.85 setlinewidth [] 0 setdash 0 0 0 setrgbcolor stroke 
newpath 96.38 31.18 2.83 0 360 arc 
closepath gsave 0 0 0 setrgbcolor fill grestore 0.85 setlinewidth [] 0 setdash 0 0 0 setrgbcolor stroke 
showpage
%%EOF
